 ADDRESS   00 01 02 03 04 05 06 07 08 09 0A 0B 0C 0D 0E 0F   0123456789ABCDEF 
------------------------------------------------------------------------------
 00006920  63 00 00 30 20 3B 00 00 00 00 00 00 00 00 00 00   c..0 ;.......... 
 00006930  04 00 00 30 18 00 00 00 01 01 00 01 A1 80 04 6C   ...0...........l 
 00006940  04 00 00 30 02 00 00 00 01 01 00 01 A5 80 04 6C   ...0...........l 
 00006950  04 00 00 30 35 00 00 00 01 01 00 01 A9 80 04 6C   ...05..........l 
 00006960  04 00 00 30 22 00 00 00 01 01 00 01 AD 80 04 6C   ...0"..........l 
 00006970  04 00 00 30 31 00 00 00 01 01 00 01 B1 80 04 6C   ...01..........l 
 00006980  04 00 00 30 14 00 00 00 01 01 00 01 B5 80 04 6C   ...0...........l 
 00006990  04 00 00 30 29 00 00 00 01 01 00 01 B9 80 04 6C   ...0)..........l 
 000069A0  04 00 00 30 0C 00 00 00 01 01 00 01 BD 80 04 6C   ...0...........l 
 000069B0  04 00 00 30 3F 00 00 00 01 01 00 01 C1 80 04 6C   ...0?..........l 
 000069C0  04 00 00 30 33 00 00 00 01 01 00 01 C5 80 04 6C   ...03..........l 
 000069D0  04 00 00 30 16 00 00 00 01 01 00 01 C9 80 04 6C   ...0...........l 
 000069E0  00 00 00 10 00 00 00 00 00 00 00 17 00 00 00 00   ................ 
 000069F0  64 00 00 30 50 41 00 00 00 00 00 00 00 00 00 00   d..0PA.......... 
 00006A00  04 00 00 30 02 00 00 00 01 01 00 01 A2 80 04 6C   ...0...........l 
 00006A10  04 00 00 30 35 00 00 00 01 01 00 01 A6 80 04 6C   ...05..........l 
 00006A20  04 00 00 30 0C 00 00 00 01 01 00 01 AA 80 04 6C   ...0...........l 
 00006A30  04 00 00 30 22 00 00 00 01 01 00 01 AE 80 04 6C   ...0"..........l 
 00006A40  04 00 00 30 18 00 00 00 01 01 00 01 B2 80 04 6C   ...0...........l 
 00006A50  04 00 00 30 3F 00 00 00 01 01 00 01 B6 80 04 6C   ...0?..........l 
 00006A60  04 00 00 30 14 00 00 00 01 01 00 01 BA 80 04 6C   ...0...........l 
 00006A70  04 00 00 30 29 00 00 00 01 01 00 01 BE 80 04 6C   ...0)..........l 
 00006A80  04 00 00 30 31 00 00 00 01 01 00 01 C2 80 04 6C   ...01..........l 
 00006A90  04 00 00 30 33 00 00 00 01 01 00 01 C6 80 04 6C   ...03..........l 
 00006AA0  04 00 00 30 16 00 00 00 01 01 00 01 CA 80 04 6C   ...0...........l 
 00006AB0  00 00 00 10 00 00 00 00 00 00 00 17 00 00 00 00   ................ 
