0000   stcycl cl 01 wl 01
0004   unpack V4-32 c 4 a 000 usn 0 flg 1 m 0
    00000001 00000000 00000000 00000000 
    0000004f 00000004 0000009e 000000a1 
    00000000 00000000 00000000 00000000 
    0000004b 00000053 00000000 0000000b 
    min(0), max(161)
0048   stcycl cl 01 wl 01
004C   unpack V2-16 c 79 a 004 usn 0 flg 1 m 0
    00c6 0503 
    003b 0782 
    02bb 0542 
    02a0 0782 
    0423 0538 
    041a 0783 
    0567 0783 
    041a 07b2 
    0567 07b2 
    041a 07ff 
    0567 081d 
    0408 0a6d 
    0568 0a8e 
    0502 0b70 
    07b7 0a30 
    07b7 0b68 
    09b8 0a2e 
    0c02 0ba3 
    0bdb 0a0a 
    0d96 0a01 
    0bc5 0911 
    0da8 08f4 
    0bc5 07b2 
    0d76 07b2 
    0d76 0783 
    0fde 07b2 
    0fde 0783 
    00c6 0503 
    003b 0782 
    02bb 0542 
    02a0 0782 
    0423 0538 
    041a 0783 
    0567 0783 
    041a 07b2 
    0567 07b2 
    041a 07ff 
    0567 081d 
    0408 0a6d 
    0568 0a8e 
    0502 0b70 
    07b7 0a30 
    07b7 0b68 
    09b8 0a2e 
    0c02 0ba3 
    0bdb 0a0a 
    0d96 0a01 
    0bc5 0911 
    0da8 08f4 
    0bc5 07b2 
    0d76 07b2 
    0d76 0783 
    0fde 07b2 
    0fde 0783 
    0423 0538 
    0567 0783 
    062d 05d8 
    07b7 0783 
    087e 06d9 
    0a16 0783 
    08e4 06a2 
    0a5b 05e4 
    0972 0512 
    0a6c 0567 
    0a49 034a 
    0b84 03a7 
    0bcf 0214 
    0cb9 02e0 
    0d91 0219 
    0d5a 0326 
    0d9a 0302 
    0e70 03b2 
    0d5a 0326 
    0e50 03d7 
    0d4f 0419 
    0803 0016 
    06a8 0016 
    06a8 012e 
    0803 0016 
    min(22), max(4062)
018C   stmask  3 3 0 3  3 3 0 3  3 3 0 3  3 3 0 3 
0194   stcycl cl 01 wl 01
0198   unpack S-8 c 79 a 004 usn 1 flg 1 m 1
    00 
    27 
    01 
    02 
    03 
    04 
    05 
    06 
    07 
    40 
    41 
    3d 
    3e 
    3f 
    33 
    34 
    35 
    36 
    37 
    32 
    4a 
    49 
    28 
    29 
    2a 
    25 
    27 
    21 
    44 
    22 
    23 
    24 
    1c 
    1d 
    1e 
    1f 
    39 
    3a 
    3b 
    3c 
    38 
    2d 
    2e 
    2f 
    30 
    31 
    2c 
    48 
    47 
    45 
    46 
    42 
    43 
    44 
    03 
    05 
    08 
    2b 
    09 
    26 
    0a 
    0b 
    0c 
    0d 
    0e 
    0f 
    10 
    11 
    12 
    13 
    14 
    15 
    16 
    17 
    20 
    18 
    19 
    1a 
    1b 
    min(0), max(74)
01EC   stmask  3 3 3 0  3 3 3 0  3 3 3 0  3 3 3 0 
01F4   stcycl cl 01 wl 01
01F8   unpack S-8 c 79 a 004 usn 1 flg 1 m 1
    10 
    10 
    20 
    30 
    20 
    30 
    20 
    30 
    20 
    30 
    20 
    30 
    20 
    30 
    20 
    30 
    20 
    30 
    20 
    30 
    20 
    30 
    20 
    30 
    20 
    30 
    20 
    10 
    10 
    30 
    20 
    30 
    20 
    30 
    20 
    30 
    20 
    30 
    20 
    30 
    20 
    30 
    20 
    30 
    20 
    30 
    20 
    30 
    20 
    30 
    20 
    30 
    20 
    30 
    10 
    10 
    20 
    30 
    20 
    30 
    20 
    30 
    20 
    30 
    20 
    30 
    20 
    30 
    20 
    30 
    20 
    30 
    20 
    30 
    20 
    10 
    10 
    20 
    30 
    min(16), max(48)
024C   stcol 3f800000 3f800000 3f800000 3f800000
0260   stmask  0 0 0 2  0 0 0 2  0 0 0 2  0 0 0 2 
0268   stcycl cl 01 wl 01
026C   unpack V3-32 c 75 a 053 usn 0 flg 1 m 1
    c033a0c0 bfed5c9e c13b02ee 
    c0582940 41096f40 c0f0ab53 
    c17b6cac 410e6bba c102029d 
    c0397ee0 413ca44a bea0aa20 
    c1849f56 414558dc bea236b0 
    c17b6bd8 410e5f06 40cbaea7 
    c18c559c 413f1568 bea23fd0 
    c185793e 4108835a 40c9a1af 
    c0bcea90 40be6e6f 41006a34 
    c0fbbd10 c0be6912 413dd68a 
    c0ca1350 c0fe45a6 4142fe34 
    beba2600 c155b152 40e70bc7 
    403b5460 c1058a80 412b9a40 
    40197820 c14d1008 40ddb82b 
    414579f8 c0dba34f 40d93437 
    4138e8d0 c12b2b0a 3fec8ee4 
    41627bd8 412ce611 4121e295 
    419153bc 411e5fac 408db7b6 
    41624680 4129024d baa3de4c 
    41994cb0 4107e48a 3fc24b2e 
    41979f4c 41081207 ba83f220 
    41afdb98 407fa5f8 b9f75846 
    41994cb0 4107e311 bfc28d07 
    41adfb0c 40897b0c bf844af1 
    40193640 c0e73b80 40f4625e 
    40146060 c10a171f 3a8607ad 
    4106acd0 c1190088 3a948070 
    40193640 c0e74a52 c0f45456 
    c1849fc8 41455fb2 3ea55ef0 
    c17b6d78 410e7194 c0cb885e 
    c18c5610 413f1c3c 3ea555c0 
    c1857a10 410895ca c0c97c78 
    4110c688 c1234ad0 40df34e6 
    c0339f20 bfedc570 413b01c2 
    c0582980 41096976 40f0cdc3 
    c17b6cb0 410e64da 410215c1 
    c0398260 413cab28 3ea38310 
    413d71c0 be42ae00 c16e4db0 
    41c30573 3f885920 410a3d72 
    413bfe30 3f567200 c17032f4 
    41df8af1 b8d80000 baef1000 
    41c1d66d be210100 c10de732 
    41c2f666 3f5fbe00 c1105dd6 
    413628ac 3f9150a0 4154744a 
    417cb538 3eefab80 41143aee 
    40193904 40295b50 c18852e7 
    3fa5dc18 c023f490 c1744be6 
    4164d804 3f32eb80 c137f0c6 
    4158103e c0b6d2e0 3d939740 
    419830a4 39680000 baeee000 
    417cb3a0 3eefb700 c11446b1 
    40199674 40294730 41885398 
    3fa68998 c0240710 41744d4a 
    4164ea1c 3f32ad80 4137e676 
    4158175e c0b6d5e8 bd990300 
    4198343e b9280000 baee7000 
    418cd560 c10fba03 c0994667 
    3f666d40 c141a8f0 3ea530d0 
    3f9a3cc0 c1085294 c0c8e5bf 
    414c7a08 c12352b3 3ea4fb60 
    41511424 c0da7664 c0c1df39 
    414c7a34 c1234bc8 bea29a40 
    41511488 c0da5496 40c1fab2 
    418cd586 c10fab1a 40996858 
    3f667000 c141a201 bea264e0 
    3f9a3fe0 c1084153 40c9073e 
    41c2f730 3f5fbd00 41105265 
    413d78f8 be42e700 416e4e2b 
    413c0582 3f566400 417033a0 
    41df8768 39180000 baefe000 
    41c1d726 be210400 410ddbc6 
    4132ea08 3c6ad000 410a1159 
    4166d32c b8100000 bad36000 
    4132e8b8 3c6a7000 c10a1bad 
    4166da90 38700000 bae01000 
    min(946864128), max(3247199760)
05F4   stcycl cl 01 wl 01
05F8   unpack V4-32 c 3 a 09E usn 0 flg 1 m 0
    00000010 0000000c 00000009 00000007 
    00000006 00000006 00000005 00000005 
    00000005 00000002 00000002 00000000 
    min(0), max(16)
062C   nop
