 ADDRESS   00 01 02 03 04 05 06 07 08 09 0A 0B 0C 0D 0E 0F   0123456789ABCDEF 
------------------------------------------------------------------------------
 00003B20  01 01 00 01 00 80 04 6C 01 00 00 00 00 00 00 00   .......l........ 
 00003B30  00 00 00 00 00 00 00 00 4F 00 00 00 04 00 00 00   ........O....... 
 00003B40  9E 00 00 00 A1 00 00 00 00 00 00 00 00 00 00 00   ................ 
 00003B50  00 00 00 00 00 00 00 00 4B 00 00 00 53 00 00 00   ........K...S... 
 00003B60  00 00 00 00 0B 00 00 00 01 01 00 01 04 80 4F 65   ..............Oe 
 00003B70  C6 00 03 05 3B 00 82 07 BB 02 42 05 A0 02 82 07   ....;.....B..... 
 00003B80  23 04 38 05 1A 04 83 07 67 05 83 07 1A 04 B2 07   #.8.....g....... 
 00003B90  67 05 B2 07 1A 04 FF 07 67 05 1D 08 08 04 6D 0A   g.......g.....m. 
 00003BA0  68 05 8E 0A 02 05 70 0B B7 07 30 0A B7 07 68 0B   h.....p...0...h. 
 00003BB0  B8 09 2E 0A 02 0C A3 0B DB 0B 0A 0A 96 0D 01 0A   ................ 
 00003BC0  C5 0B 11 09 A8 0D F4 08 C5 0B B2 07 76 0D B2 07   ............v... 
 00003BD0  76 0D 83 07 DE 0F B2 07 DE 0F 83 07 C6 00 03 05   v............... 
 00003BE0  3B 00 82 07 BB 02 42 05 A0 02 82 07 23 04 38 05   ;.....B.....#.8. 
 00003BF0  1A 04 83 07 67 05 83 07 1A 04 B2 07 67 05 B2 07   ....g.......g... 
 00003C00  1A 04 FF 07 67 05 1D 08 08 04 6D 0A 68 05 8E 0A   ....g.....m.h... 
 00003C10  02 05 70 0B B7 07 30 0A B7 07 68 0B B8 09 2E 0A   ..p...0...h..... 
 00003C20  02 0C A3 0B DB 0B 0A 0A 96 0D 01 0A C5 0B 11 09   ................ 
 00003C30  A8 0D F4 08 C5 0B B2 07 76 0D B2 07 76 0D 83 07   ........v...v... 
 00003C40  DE 0F B2 07 DE 0F 83 07 23 04 38 05 67 05 83 07   ........#.8.g... 
 00003C50  2D 06 D8 05 B7 07 83 07 7E 08 D9 06 16 0A 83 07   -.......~....... 
 00003C60  E4 08 A2 06 5B 0A E4 05 72 09 12 05 6C 0A 67 05   ....[...r...l.g. 
 00003C70  49 0A 4A 03 84 0B A7 03 CF 0B 14 02 B9 0C E0 02   I.J............. 
 00003C80  91 0D 19 02 5A 0D 26 03 9A 0D 02 03 70 0E B2 03   ....Z.&.....p... 
 00003C90  5A 0D 26 03 50 0E D7 03 4F 0D 19 04 03 08 16 00   Z.&.P...O....... 
 00003CA0  A8 06 16 00 A8 06 2E 01 03 08 16 00 00 00 00 20   ...............  
 00003CB0  CF CF CF CF 01 01 00 01 04 C0 4F 72 00 27 01 02   ..........Or.'.. 
 00003CC0  03 04 05 06 07 40 41 3D 3E 3F 33 34 35 36 37 32   .....@A=>?345672 
 00003CD0  4A 49 28 29 2A 25 27 21 44 22 23 24 1C 1D 1E 1F   JI()*%'!D"#$.... 
 00003CE0  39 3A 3B 3C 38 2D 2E 2F 30 31 2C 48 47 45 46 42   9:;<8-./01,HGEFB 
 00003CF0  43 44 03 05 08 2B 09 26 0A 0B 0C 0D 0E 0F 10 11   CD...+.&........ 
 00003D00  12 13 14 15 16 17 20 18 19 1A 1B 00 00 00 00 20   ...... ........  
 00003D10  3F 3F 3F 3F 01 01 00 01 04 C0 4F 72 10 10 20 30   ????......Or.. 0 
 00003D20  20 30 20 30 20 30 20 30 20 30 20 30 20 30 20 30    0 0 0 0 0 0 0 0 
 00003D30  20 30 20 30 20 30 20 10 10 30 20 30 20 30 20 30    0 0 0 ..0 0 0 0 
 00003D40  20 30 20 30 20 30 20 30 20 30 20 30 20 30 20 30    0 0 0 0 0 0 0 0 
 00003D50  20 30 10 10 20 30 20 30 20 30 20 30 20 30 20 30    0.. 0 0 0 0 0 0 
 00003D60  20 30 20 30 20 30 20 10 10 20 30 00 00 00 00 31    0 0 0 .. 0....1 
 00003D70  00 00 80 3F 00 00 80 3F 00 00 80 3F 00 00 80 3F   ...?...?...?...? 
 00003D80  00 00 00 20 80 80 80 80 01 01 00 01 53 80 4B 78   ... ........S.Kx 
 00003D90  C0 A0 33 C0 9E 5C ED BF EE 02 3B C1 40 29 58 C0   ..3..\....;.@)X. 
 00003DA0  40 6F 09 41 53 AB F0 C0 AC 6C 7B C1 BA 6B 0E 41   @o.AS....l{..k.A 
 00003DB0  9D 02 02 C1 E0 7E 39 C0 4A A4 3C 41 20 AA A0 BE   .....~9.J.<A ... 
 00003DC0  56 9F 84 C1 DC 58 45 41 B0 36 A2 BE D8 6B 7B C1   V....XEA.6...k{. 
 00003DD0  06 5F 0E 41 A7 AE CB 40 9C 55 8C C1 68 15 3F 41   ._.A...@.U..h.?A 
 00003DE0  D0 3F A2 BE 3E 79 85 C1 5A 83 08 41 AF A1 C9 40   .?..>y..Z..A...@ 
 00003DF0  90 EA BC C0 6F 6E BE 40 34 6A 00 41 10 BD FB C0   ....on.@4j.A.... 
 00003E00  12 69 BE C0 8A D6 3D 41 50 13 CA C0 A6 45 FE C0   .i....=AP....E.. 
 00003E10  34 FE 42 41 00 26 BA BE 52 B1 55 C1 C7 0B E7 40   4.BA.&..R.U....@ 
 00003E20  60 54 3B 40 80 8A 05 C1 40 9A 2B 41 20 78 19 40   `T;@....@.+A x.@ 
 00003E30  08 10 4D C1 2B B8 DD 40 F8 79 45 41 4F A3 DB C0   ..M.+..@.yEAO... 
 00003E40  37 34 D9 40 D0 E8 38 41 0A 2B 2B C1 E4 8E EC 3F   74.@..8A.++....? 
 00003E50  D8 7B 62 41 11 E6 2C 41 95 E2 21 41 BC 53 91 41   .{bA..,A..!A.S.A 
 00003E60  AC 5F 1E 41 B6 B7 8D 40 80 46 62 41 4D 02 29 41   ._.A...@.FbAM.)A 
 00003E70  4C DE A3 BA B0 4C 99 41 8A E4 07 41 2E 4B C2 3F   L....L.A...A.K.? 
 00003E80  4C 9F 97 41 07 12 08 41 20 F2 83 BA 98 DB AF 41   L..A...A ......A 
 00003E90  F8 A5 7F 40 46 58 F7 B9 B0 4C 99 41 11 E3 07 41   ...@FX...L.A...A 
 00003EA0  07 8D C2 BF 0C FB AD 41 0C 7B 89 40 F1 4A 84 BF   .......A.{.@.J.. 
 00003EB0  40 36 19 40 80 3B E7 C0 5E 62 F4 40 60 60 14 40   @6.@.;..^b.@``.@ 
 00003EC0  1F 17 0A C1 AD 07 86 3A D0 AC 06 41 88 00 19 C1   .......:...A.... 
 00003ED0  70 80 94 3A 40 36 19 40 52 4A E7 C0 56 54 F4 C0   p..:@6.@RJ..VT.. 
 00003EE0  C8 9F 84 C1 B2 5F 45 41 F0 5E A5 3E 78 6D 7B C1   ....._EA.^.>xm{. 
 00003EF0  94 71 0E 41 5E 88 CB C0 10 56 8C C1 3C 1C 3F 41   .q.A^....V..<.?A 
 00003F00  C0 55 A5 3E 10 7A 85 C1 CA 95 08 41 78 7C C9 C0   .U.>.z.....Ax|.. 
 00003F10  88 C6 10 41 D0 4A 23 C1 E6 34 DF 40 20 9F 33 C0   ...A.J#..4.@ .3. 
 00003F20  70 C5 ED BF C2 01 3B 41 80 29 58 C0 76 69 09 41   p.....;A.)X.vi.A 
 00003F30  C3 CD F0 40 B0 6C 7B C1 DA 64 0E 41 C1 15 02 41   ...@.l{..d.A...A 
 00003F40  60 82 39 C0 28 AB 3C 41 10 83 A3 3E C0 71 3D 41   `.9.(.<A...>.q=A 
 00003F50  00 AE 42 BE B0 4D 6E C1 73 05 C3 41 20 59 88 3F   ..B..Mn.s..A Y.? 
 00003F60  72 3D 0A 41 30 FE 3B 41 00 72 56 3F F4 32 70 C1   r=.A0.;A.rV?.2p. 
 00003F70  F1 8A DF 41 00 00 D8 B8 00 10 EF BA 6D D6 C1 41   ...A........m..A 
 00003F80  00 01 21 BE 32 E7 0D C1 66 F6 C2 41 00 BE 5F 3F   ..!.2...f..A.._? 
 00003F90  D6 5D 10 C1 AC 28 36 41 A0 50 91 3F 4A 74 54 41   .]...(6A.P.?JtTA 
 00003FA0  38 B5 7C 41 80 AB EF 3E EE 3A 14 41 04 39 19 40   8.|A...>.:.A.9.@ 
 00003FB0  50 5B 29 40 E7 52 88 C1 18 DC A5 3F 90 F4 23 C0   P[)@.R.....?..#. 
 00003FC0  E6 4B 74 C1 04 D8 64 41 80 EB 32 3F C6 F0 37 C1   .Kt...dA..2?..7. 
 00003FD0  3E 10 58 41 E0 D2 B6 C0 40 97 93 3D A4 30 98 41   >.XA....@..=.0.A 
 00003FE0  00 00 68 39 00 E0 EE BA A0 B3 7C 41 00 B7 EF 3E   ..h9......|A...> 
 00003FF0  B1 46 14 C1 74 96 19 40 30 47 29 40 98 53 88 41   .F..t..@0G)@.S.A 
 00004000  98 89 A6 3F 10 07 24 C0 4A 4D 74 41 1C EA 64 41   ...?..$.JMtA..dA 
 00004010  80 AD 32 3F 76 E6 37 41 5E 17 58 41 E8 D5 B6 C0   ..2?v.7A^.XA.... 
 00004020  00 03 99 BD 3E 34 98 41 00 00 28 B9 00 70 EE BA   ....>4.A..(..p.. 
 00004030  60 D5 8C 41 03 BA 0F C1 67 46 99 C0 40 6D 66 3F   `..A....gF..@mf? 
 00004040  F0 A8 41 C1 D0 30 A5 3E C0 3C 9A 3F 94 52 08 C1   ..A..0.>.<.?.R.. 
 00004050  BF E5 C8 C0 08 7A 4C 41 B3 52 23 C1 60 FB A4 3E   .....zLA.R#.`..> 
 00004060  24 14 51 41 64 76 DA C0 39 DF C1 C0 34 7A 4C 41   $.QAdv..9...4zLA 
 00004070  C8 4B 23 C1 40 9A A2 BE 88 14 51 41 96 54 DA C0   .K#.@.....QA.T.. 
 00004080  B2 FA C1 40 86 D5 8C 41 1A AB 0F C1 58 68 99 40   ...@...A....Xh.@ 
 00004090  00 70 66 3F 01 A2 41 C1 E0 64 A2 BE E0 3F 9A 3F   .pf?..A..d...?.? 
 000040A0  53 41 08 C1 3E 07 C9 40 30 F7 C2 41 00 BD 5F 3F   SA..>..@0..A.._? 
 000040B0  65 52 10 41 F8 78 3D 41 00 E7 42 BE 2B 4E 6E 41   eR.A.x=A..B.+NnA 
 000040C0  82 05 3C 41 00 64 56 3F A0 33 70 41 68 87 DF 41   ..<A.dV?.3pAh..A 
 000040D0  00 00 18 39 00 E0 EF BA 26 D7 C1 41 00 04 21 BE   ...9....&..A..!. 
 000040E0  C6 DB 0D 41 08 EA 32 41 00 D0 6A 3C 59 11 0A 41   ...A..2A..j<Y..A 
 000040F0  2C D3 66 41 00 00 10 B8 00 60 D3 BA B8 E8 32 41   ,.fA.....`....2A 
 00004100  00 70 6A 3C AD 1B 0A C1 90 DA 66 41 00 00 70 38   .pj<......fA..p8 
 00004110  00 10 E0 BA 01 01 00 01 9E 80 03 6C 10 00 00 00   ...........l.... 
 00004120  0C 00 00 00 09 00 00 00 07 00 00 00 06 00 00 00   ................ 
 00004130  06 00 00 00 05 00 00 00 05 00 00 00 05 00 00 00   ................ 
 00004140  02 00 00 00 02 00 00 00 00 00 00 00 00 00 00 00   ................ 
